\contentsline {chapter}{\numberline {1}Spatially Resolved Stochastic Cluster Dynamics (parallel) Overview}{1}{chapter.1}
\contentsline {section}{\numberline {1.1}Overview}{1}{section.1.1}
\contentsline {subsection}{\numberline {1.1.1}Outline of parallel S\discretionary {\unhbox \voidb@x \hbox {\relax \fontsize {7}{8}\selectfont $\leftarrow \joinrel \rhook $}}{}{}R\discretionary {\unhbox \voidb@x \hbox {\relax \fontsize {7}{8}\selectfont $\leftarrow \joinrel \rhook $}}{}{}S\discretionary {\unhbox \voidb@x \hbox {\relax \fontsize {7}{8}\selectfont $\leftarrow \joinrel \rhook $}}{}{}C\discretionary {\unhbox \voidb@x \hbox {\relax \fontsize {7}{8}\selectfont $\leftarrow \joinrel \rhook $}}{}{}D algorithm\discretionary {\unhbox \voidb@x \hbox {\relax \fontsize {7}{8}\selectfont $\leftarrow \joinrel \rhook $}}{}{}:}{1}{subsection.1.1.1}
\contentsline {section}{\numberline {1.2}Compiling instructions}{2}{section.1.2}
\contentsline {section}{\numberline {1.3}Description of parameters.\discretionary {\unhbox \voidb@x \hbox {\relax \fontsize {7}{8}\selectfont $\leftarrow \joinrel \rhook $}}{}{}txt}{2}{section.1.3}
\contentsline {subsection}{\numberline {1.3.1}Mesh\discretionary {\unhbox \voidb@x \hbox {\relax \fontsize {7}{8}\selectfont $\leftarrow \joinrel \rhook $}}{}{}Type (\textquotesingle {}uniform\textquotesingle {} or \textquotesingle {}non-\/uniform\textquotesingle {})}{2}{subsection.1.3.1}
\contentsline {subsection}{\numberline {1.3.2}Debug\discretionary {\unhbox \voidb@x \hbox {\relax \fontsize {7}{8}\selectfont $\leftarrow \joinrel \rhook $}}{}{}Restart (\textquotesingle {}yes\textquotesingle {} or \textquotesingle {}no\textquotesingle {})}{2}{subsection.1.3.2}
\contentsline {subsection}{\numberline {1.3.3}Num\discretionary {\unhbox \voidb@x \hbox {\relax \fontsize {7}{8}\selectfont $\leftarrow \joinrel \rhook $}}{}{}Materials (integer number)}{2}{subsection.1.3.3}
\contentsline {subsection}{\numberline {1.3.4}Implant\discretionary {\unhbox \voidb@x \hbox {\relax \fontsize {7}{8}\selectfont $\leftarrow \joinrel \rhook $}}{}{}Type (\textquotesingle {}cascade\textquotesingle {} or \textquotesingle {}\discretionary {\unhbox \voidb@x \hbox {\relax \fontsize {7}{8}\selectfont $\leftarrow \joinrel \rhook $}}{}{}Frenkel\discretionary {\unhbox \voidb@x \hbox {\relax \fontsize {7}{8}\selectfont $\leftarrow \joinrel \rhook $}}{}{}Pair\textquotesingle {})}{3}{subsection.1.3.4}
\contentsline {subsection}{\numberline {1.3.5}Implant\discretionary {\unhbox \voidb@x \hbox {\relax \fontsize {7}{8}\selectfont $\leftarrow \joinrel \rhook $}}{}{}Scheme (\textquotesingle {}\discretionary {\unhbox \voidb@x \hbox {\relax \fontsize {7}{8}\selectfont $\leftarrow \joinrel \rhook $}}{}{}Monte\discretionary {\unhbox \voidb@x \hbox {\relax \fontsize {7}{8}\selectfont $\leftarrow \joinrel \rhook $}}{}{}Carlo\textquotesingle {} or \textquotesingle {}explicit\textquotesingle {})}{3}{subsection.1.3.5}
\contentsline {subsection}{\numberline {1.3.6}Meshing\discretionary {\unhbox \voidb@x \hbox {\relax \fontsize {7}{8}\selectfont $\leftarrow \joinrel \rhook $}}{}{}Type (\textquotesingle {}adaptive\textquotesingle {} or \textquotesingle {}non\discretionary {\unhbox \voidb@x \hbox {\relax \fontsize {7}{8}\selectfont $\leftarrow \joinrel \rhook $}}{}{}Adaptive\textquotesingle {})}{3}{subsection.1.3.6}
\contentsline {subsection}{\numberline {1.3.7}implant\discretionary {\unhbox \voidb@x \hbox {\relax \fontsize {7}{8}\selectfont $\leftarrow \joinrel \rhook $}}{}{}Dist (\textquotesingle {}uniform\textquotesingle {} or \textquotesingle {}non\discretionary {\unhbox \voidb@x \hbox {\relax \fontsize {7}{8}\selectfont $\leftarrow \joinrel \rhook $}}{}{}Uniform\textquotesingle {})}{3}{subsection.1.3.7}
\contentsline {subsection}{\numberline {1.3.8}Grain\discretionary {\unhbox \voidb@x \hbox {\relax \fontsize {7}{8}\selectfont $\leftarrow \joinrel \rhook $}}{}{}Boundaries (\textquotesingle {}yes\textquotesingle {} or \textquotesingle {}no\textquotesingle {})}{3}{subsection.1.3.8}
\contentsline {subsection}{\numberline {1.3.9}S\discretionary {\unhbox \voidb@x \hbox {\relax \fontsize {7}{8}\selectfont $\leftarrow \joinrel \rhook $}}{}{}I\discretionary {\unhbox \voidb@x \hbox {\relax \fontsize {7}{8}\selectfont $\leftarrow \joinrel \rhook $}}{}{}A\discretionary {\unhbox \voidb@x \hbox {\relax \fontsize {7}{8}\selectfont $\leftarrow \joinrel \rhook $}}{}{}Pin\discretionary {\unhbox \voidb@x \hbox {\relax \fontsize {7}{8}\selectfont $\leftarrow \joinrel \rhook $}}{}{}Toggle (\textquotesingle {}yes\textquotesingle {} or \textquotesingle {}no\textquotesingle {})}{3}{subsection.1.3.9}
\contentsline {subsection}{\numberline {1.3.10}He\discretionary {\unhbox \voidb@x \hbox {\relax \fontsize {7}{8}\selectfont $\leftarrow \joinrel \rhook $}}{}{}S\discretionary {\unhbox \voidb@x \hbox {\relax \fontsize {7}{8}\selectfont $\leftarrow \joinrel \rhook $}}{}{}I\discretionary {\unhbox \voidb@x \hbox {\relax \fontsize {7}{8}\selectfont $\leftarrow \joinrel \rhook $}}{}{}A\discretionary {\unhbox \voidb@x \hbox {\relax \fontsize {7}{8}\selectfont $\leftarrow \joinrel \rhook $}}{}{}Toggle (\textquotesingle {}yes\textquotesingle {} or \textquotesingle {}no\textquotesingle {})}{3}{subsection.1.3.10}
\contentsline {subsection}{\numberline {1.3.11}Other parameters}{3}{subsection.1.3.11}
\contentsline {section}{\numberline {1.4}Output files and formatting}{4}{section.1.4}
\contentsline {section}{\numberline {1.5}General comments}{4}{section.1.5}
\contentsline {chapter}{\numberline {2}Modules Index}{5}{chapter.2}
\contentsline {section}{\numberline {2.1}Modules List}{5}{section.2.1}
\contentsline {chapter}{\numberline {3}Data Type Index}{7}{chapter.3}
\contentsline {section}{\numberline {3.1}Data Types List}{7}{section.3.1}
\contentsline {chapter}{\numberline {4}File Index}{9}{chapter.4}
\contentsline {section}{\numberline {4.1}File List}{9}{section.4.1}
\contentsline {chapter}{\numberline {5}Module Documentation}{11}{chapter.5}
\contentsline {section}{\numberline {5.1}derivedtype Module Reference}{11}{section.5.1}
\contentsline {subsection}{\numberline {5.1.1}Detailed Description}{12}{subsection.5.1.1}
\contentsline {section}{\numberline {5.2}meshreader Module Reference}{12}{section.5.2}
\contentsline {subsection}{\numberline {5.2.1}Detailed Description}{13}{subsection.5.2.1}
\contentsline {subsection}{\numberline {5.2.2}Function/\discretionary {\unhbox \voidb@x \hbox {\relax \fontsize {7}{8}\selectfont $\leftarrow \joinrel \rhook $}}{}{}Subroutine Documentation}{13}{subsection.5.2.2}
\contentsline {subsubsection}{\numberline {5.2.2.1}createconnectglobalfreesurfnonuniform}{13}{subsubsection.5.2.2.1}
\contentsline {subsubsection}{\numberline {5.2.2.2}createconnectglobalfreesurfuniform}{14}{subsubsection.5.2.2.2}
\contentsline {subsubsection}{\numberline {5.2.2.3}createconnectglobalperiodicnonuniform}{14}{subsubsection.5.2.2.3}
\contentsline {subsubsection}{\numberline {5.2.2.4}createconnectglobalperiodicuniform}{14}{subsubsection.5.2.2.4}
\contentsline {subsubsection}{\numberline {5.2.2.5}createconnectlocalfreesurfuniform}{15}{subsubsection.5.2.2.5}
\contentsline {subsubsection}{\numberline {5.2.2.6}createconnectlocalnonuniform}{15}{subsubsection.5.2.2.6}
\contentsline {subsubsection}{\numberline {5.2.2.7}createconnectlocalperiodicuniform}{16}{subsubsection.5.2.2.7}
\contentsline {subsubsection}{\numberline {5.2.2.8}createproccoordlist}{16}{subsubsection.5.2.2.8}
\contentsline {subsubsection}{\numberline {5.2.2.9}findglobalcell}{17}{subsubsection.5.2.2.9}
\contentsline {subsubsection}{\numberline {5.2.2.10}findlocalcell}{17}{subsubsection.5.2.2.10}
\contentsline {subsubsection}{\numberline {5.2.2.11}findneighborproc}{17}{subsubsection.5.2.2.11}
\contentsline {subsubsection}{\numberline {5.2.2.12}readmeshnonuniform}{17}{subsubsection.5.2.2.12}
\contentsline {subsubsection}{\numberline {5.2.2.13}readmeshuniform}{18}{subsubsection.5.2.2.13}
\contentsline {section}{\numberline {5.3}mod\discretionary {\unhbox \voidb@x \hbox {\relax \fontsize {7}{8}\selectfont $\leftarrow \joinrel \rhook $}}{}{}\_\discretionary {\unhbox \voidb@x \hbox {\relax \fontsize {7}{8}\selectfont $\leftarrow \joinrel \rhook $}}{}{}srscd\discretionary {\unhbox \voidb@x \hbox {\relax \fontsize {7}{8}\selectfont $\leftarrow \joinrel \rhook $}}{}{}\_\discretionary {\unhbox \voidb@x \hbox {\relax \fontsize {7}{8}\selectfont $\leftarrow \joinrel \rhook $}}{}{}constants Module Reference}{19}{section.5.3}
\contentsline {subsection}{\numberline {5.3.1}Detailed Description}{23}{subsection.5.3.1}
\contentsline {subsection}{\numberline {5.3.2}Variable Documentation}{23}{subsection.5.3.2}
\contentsline {subsubsection}{\numberline {5.3.2.1}activecascades}{23}{subsubsection.5.3.2.1}
\contentsline {subsubsection}{\numberline {5.3.2.2}annealsteps}{23}{subsubsection.5.3.2.2}
\contentsline {subsubsection}{\numberline {5.3.2.3}annealtemp}{23}{subsubsection.5.3.2.3}
\contentsline {subsubsection}{\numberline {5.3.2.4}annealtempinc}{23}{subsubsection.5.3.2.4}
\contentsline {subsubsection}{\numberline {5.3.2.5}annealtime}{24}{subsubsection.5.3.2.5}
\contentsline {subsubsection}{\numberline {5.3.2.6}annealtype}{24}{subsubsection.5.3.2.6}
\contentsline {subsubsection}{\numberline {5.3.2.7}atomsize}{24}{subsubsection.5.3.2.7}
\contentsline {subsubsection}{\numberline {5.3.2.8}bindfunc}{24}{subsubsection.5.3.2.8}
\contentsline {subsubsection}{\numberline {5.3.2.9}bindsingle}{24}{subsubsection.5.3.2.9}
\contentsline {subsubsection}{\numberline {5.3.2.10}burgers}{24}{subsubsection.5.3.2.10}
\contentsline {subsubsection}{\numberline {5.3.2.11}cascadeconnectivity}{24}{subsubsection.5.3.2.11}
\contentsline {subsubsection}{\numberline {5.3.2.12}cascadeelementvol}{24}{subsubsection.5.3.2.12}
\contentsline {subsubsection}{\numberline {5.3.2.13}cascadelist}{24}{subsubsection.5.3.2.13}
\contentsline {subsubsection}{\numberline {5.3.2.14}cascadereactionlimit}{24}{subsubsection.5.3.2.14}
\contentsline {subsubsection}{\numberline {5.3.2.15}cascadevolume}{24}{subsubsection.5.3.2.15}
\contentsline {subsubsection}{\numberline {5.3.2.16}clusterreactions}{24}{subsubsection.5.3.2.16}
\contentsline {subsubsection}{\numberline {5.3.2.17}debugtoggle}{25}{subsubsection.5.3.2.17}
\contentsline {subsubsection}{\numberline {5.3.2.18}defectdensity}{25}{subsubsection.5.3.2.18}
\contentsline {subsubsection}{\numberline {5.3.2.19}defectlist}{25}{subsubsection.5.3.2.19}
\contentsline {subsubsection}{\numberline {5.3.2.20}difffunc}{25}{subsubsection.5.3.2.20}
\contentsline {subsubsection}{\numberline {5.3.2.21}diffreactions}{25}{subsubsection.5.3.2.21}
\contentsline {subsubsection}{\numberline {5.3.2.22}diffsingle}{25}{subsubsection.5.3.2.22}
\contentsline {subsubsection}{\numberline {5.3.2.23}dislocationdensity}{25}{subsubsection.5.3.2.23}
\contentsline {subsubsection}{\numberline {5.3.2.24}dissocreactions}{25}{subsubsection.5.3.2.24}
\contentsline {subsubsection}{\numberline {5.3.2.25}dpa}{25}{subsubsection.5.3.2.25}
\contentsline {subsubsection}{\numberline {5.3.2.26}dparate}{25}{subsubsection.5.3.2.26}
\contentsline {subsubsection}{\numberline {5.3.2.27}elapsedtimereset}{25}{subsubsection.5.3.2.27}
\contentsline {subsubsection}{\numberline {5.3.2.28}finelength}{25}{subsubsection.5.3.2.28}
\contentsline {subsubsection}{\numberline {5.3.2.29}grainboundarytoggle}{26}{subsubsection.5.3.2.29}
\contentsline {subsubsection}{\numberline {5.3.2.30}hedparatio}{26}{subsubsection.5.3.2.30}
\contentsline {subsubsection}{\numberline {5.3.2.31}hesiatoggle}{26}{subsubsection.5.3.2.31}
\contentsline {subsubsection}{\numberline {5.3.2.32}ierr}{26}{subsubsection.5.3.2.32}
\contentsline {subsubsection}{\numberline {5.3.2.33}implantdist}{26}{subsubsection.5.3.2.33}
\contentsline {subsubsection}{\numberline {5.3.2.34}implantratedata}{26}{subsubsection.5.3.2.34}
\contentsline {subsubsection}{\numberline {5.3.2.35}implantreactions}{26}{subsubsection.5.3.2.35}
\contentsline {subsubsection}{\numberline {5.3.2.36}implantscheme}{26}{subsubsection.5.3.2.36}
\contentsline {subsubsection}{\numberline {5.3.2.37}implanttype}{26}{subsubsection.5.3.2.37}
\contentsline {subsubsection}{\numberline {5.3.2.38}impuritydensity}{26}{subsubsection.5.3.2.38}
\contentsline {subsubsection}{\numberline {5.3.2.39}impurityreactions}{26}{subsubsection.5.3.2.39}
\contentsline {subsubsection}{\numberline {5.3.2.40}kboltzmann}{26}{subsubsection.5.3.2.40}
\contentsline {subsubsection}{\numberline {5.3.2.41}master}{27}{subsubsection.5.3.2.41}
\contentsline {subsubsection}{\numberline {5.3.2.42}max3dint}{27}{subsubsection.5.3.2.42}
\contentsline {subsubsection}{\numberline {5.3.2.43}maxrate}{27}{subsubsection.5.3.2.43}
\contentsline {subsubsection}{\numberline {5.3.2.44}meanfreepath}{27}{subsubsection.5.3.2.44}
\contentsline {subsubsection}{\numberline {5.3.2.45}meshingtype}{27}{subsubsection.5.3.2.45}
\contentsline {subsubsection}{\numberline {5.3.2.46}myboundary}{27}{subsubsection.5.3.2.46}
\contentsline {subsubsection}{\numberline {5.3.2.47}mymesh}{27}{subsubsection.5.3.2.47}
\contentsline {subsubsection}{\numberline {5.3.2.48}myproc}{27}{subsubsection.5.3.2.48}
\contentsline {subsubsection}{\numberline {5.3.2.49}numannihilate}{27}{subsubsection.5.3.2.49}
\contentsline {subsubsection}{\numberline {5.3.2.50}numcascades}{27}{subsubsection.5.3.2.50}
\contentsline {subsubsection}{\numberline {5.3.2.51}numcells}{27}{subsubsection.5.3.2.51}
\contentsline {subsubsection}{\numberline {5.3.2.52}numcellscascade}{27}{subsubsection.5.3.2.52}
\contentsline {subsubsection}{\numberline {5.3.2.53}numclusterreac}{28}{subsubsection.5.3.2.53}
\contentsline {subsubsection}{\numberline {5.3.2.54}numdiffreac}{28}{subsubsection.5.3.2.54}
\contentsline {subsubsection}{\numberline {5.3.2.55}numdisplacedatoms}{28}{subsubsection.5.3.2.55}
\contentsline {subsubsection}{\numberline {5.3.2.56}numdissocreac}{28}{subsubsection.5.3.2.56}
\contentsline {subsubsection}{\numberline {5.3.2.57}numfuncbind}{28}{subsubsection.5.3.2.57}
\contentsline {subsubsection}{\numberline {5.3.2.58}numfuncdiff}{28}{subsubsection.5.3.2.58}
\contentsline {subsubsection}{\numberline {5.3.2.59}numheimplantevents}{28}{subsubsection.5.3.2.59}
\contentsline {subsubsection}{\numberline {5.3.2.60}numheimplanteventsreset}{28}{subsubsection.5.3.2.60}
\contentsline {subsubsection}{\numberline {5.3.2.61}numheimplanttotal}{28}{subsubsection.5.3.2.61}
\contentsline {subsubsection}{\numberline {5.3.2.62}numimplantdatapoints}{28}{subsubsection.5.3.2.62}
\contentsline {subsubsection}{\numberline {5.3.2.63}numimplantevents}{28}{subsubsection.5.3.2.63}
\contentsline {subsubsection}{\numberline {5.3.2.64}numimplanteventsreset}{28}{subsubsection.5.3.2.64}
\contentsline {subsubsection}{\numberline {5.3.2.65}numimplantreac}{29}{subsubsection.5.3.2.65}
\contentsline {subsubsection}{\numberline {5.3.2.66}numimpurityreac}{29}{subsubsection.5.3.2.66}
\contentsline {subsubsection}{\numberline {5.3.2.67}nummaterials}{29}{subsubsection.5.3.2.67}
\contentsline {subsubsection}{\numberline {5.3.2.68}numsims}{29}{subsubsection.5.3.2.68}
\contentsline {subsubsection}{\numberline {5.3.2.69}numsinglebind}{29}{subsubsection.5.3.2.69}
\contentsline {subsubsection}{\numberline {5.3.2.70}numsinglediff}{29}{subsubsection.5.3.2.70}
\contentsline {subsubsection}{\numberline {5.3.2.71}numsinkreac}{29}{subsubsection.5.3.2.71}
\contentsline {subsubsection}{\numberline {5.3.2.72}numspecies}{29}{subsubsection.5.3.2.72}
\contentsline {subsubsection}{\numberline {5.3.2.73}numxcascade}{29}{subsubsection.5.3.2.73}
\contentsline {subsubsection}{\numberline {5.3.2.74}numycascade}{29}{subsubsection.5.3.2.74}
\contentsline {subsubsection}{\numberline {5.3.2.75}numzcascade}{29}{subsubsection.5.3.2.75}
\contentsline {subsubsection}{\numberline {5.3.2.76}omega}{29}{subsubsection.5.3.2.76}
\contentsline {subsubsection}{\numberline {5.3.2.77}omega1d}{30}{subsubsection.5.3.2.77}
\contentsline {subsubsection}{\numberline {5.3.2.78}omega2d}{30}{subsubsection.5.3.2.78}
\contentsline {subsubsection}{\numberline {5.3.2.79}omegacircle1d}{30}{subsubsection.5.3.2.79}
\contentsline {subsubsection}{\numberline {5.3.2.80}omegastar}{30}{subsubsection.5.3.2.80}
\contentsline {subsubsection}{\numberline {5.3.2.81}omegastar1d}{30}{subsubsection.5.3.2.81}
\contentsline {subsubsection}{\numberline {5.3.2.82}pi}{30}{subsubsection.5.3.2.82}
\contentsline {subsubsection}{\numberline {5.3.2.83}reactionlist}{30}{subsubsection.5.3.2.83}
\contentsline {subsubsection}{\numberline {5.3.2.84}reactionradius}{30}{subsubsection.5.3.2.84}
\contentsline {subsubsection}{\numberline {5.3.2.85}recombinationcoeff}{30}{subsubsection.5.3.2.85}
\contentsline {subsubsection}{\numberline {5.3.2.86}restartfilename}{30}{subsubsection.5.3.2.86}
\contentsline {subsubsection}{\numberline {5.3.2.87}siapinmin}{30}{subsubsection.5.3.2.87}
\contentsline {subsubsection}{\numberline {5.3.2.88}siapintoggle}{30}{subsubsection.5.3.2.88}
\contentsline {subsubsection}{\numberline {5.3.2.89}sinkreactions}{31}{subsubsection.5.3.2.89}
\contentsline {subsubsection}{\numberline {5.3.2.90}temperature}{31}{subsubsection.5.3.2.90}
\contentsline {subsubsection}{\numberline {5.3.2.91}tempstore}{31}{subsubsection.5.3.2.91}
\contentsline {subsubsection}{\numberline {5.3.2.92}totaldpa}{31}{subsubsection.5.3.2.92}
\contentsline {subsubsection}{\numberline {5.3.2.93}totalimplantevents}{31}{subsubsection.5.3.2.93}
\contentsline {subsubsection}{\numberline {5.3.2.94}totalrate}{31}{subsubsection.5.3.2.94}
\contentsline {subsubsection}{\numberline {5.3.2.95}totalvolume}{31}{subsubsection.5.3.2.95}
\contentsline {subsubsection}{\numberline {5.3.2.96}zint}{31}{subsubsection.5.3.2.96}
\contentsline {section}{\numberline {5.4}randdp Module Reference}{31}{section.5.4}
\contentsline {subsection}{\numberline {5.4.1}Detailed Description}{32}{subsection.5.4.1}
\contentsline {subsection}{\numberline {5.4.2}Function/\discretionary {\unhbox \voidb@x \hbox {\relax \fontsize {7}{8}\selectfont $\leftarrow \joinrel \rhook $}}{}{}Subroutine Documentation}{32}{subsection.5.4.2}
\contentsline {subsubsection}{\numberline {5.4.2.1}dprand}{32}{subsubsection.5.4.2.1}
\contentsline {subsubsection}{\numberline {5.4.2.2}sdprnd}{33}{subsubsection.5.4.2.2}
\contentsline {subsection}{\numberline {5.4.3}Variable Documentation}{33}{subsection.5.4.3}
\contentsline {subsubsection}{\numberline {5.4.3.1}dp}{33}{subsubsection.5.4.3.1}
\contentsline {subsubsection}{\numberline {5.4.3.2}index}{33}{subsubsection.5.4.3.2}
\contentsline {subsubsection}{\numberline {5.4.3.3}offset}{33}{subsubsection.5.4.3.3}
\contentsline {subsubsection}{\numberline {5.4.3.4}other}{33}{subsubsection.5.4.3.4}
\contentsline {subsubsection}{\numberline {5.4.3.5}poly}{33}{subsubsection.5.4.3.5}
\contentsline {section}{\numberline {5.5}reactionrates Module Reference}{33}{section.5.5}
\contentsline {subsection}{\numberline {5.5.1}Detailed Description}{35}{subsection.5.5.1}
\contentsline {subsection}{\numberline {5.5.2}Function/\discretionary {\unhbox \voidb@x \hbox {\relax \fontsize {7}{8}\selectfont $\leftarrow \joinrel \rhook $}}{}{}Subroutine Documentation}{35}{subsection.5.5.2}
\contentsline {subsubsection}{\numberline {5.5.2.1}adddiffusioncoarsetofine}{35}{subsubsection.5.5.2.1}
\contentsline {subsubsection}{\numberline {5.5.2.2}adddiffusionreactions}{36}{subsubsection.5.5.2.2}
\contentsline {subsubsection}{\numberline {5.5.2.3}adddiffusionreactionsfine}{37}{subsubsection.5.5.2.3}
\contentsline {subsubsection}{\numberline {5.5.2.4}addmultidefectreactions}{38}{subsubsection.5.5.2.4}
\contentsline {subsubsection}{\numberline {5.5.2.5}addmultidefectreactionsfine}{38}{subsubsection.5.5.2.5}
\contentsline {subsubsection}{\numberline {5.5.2.6}addsingledefectreactions}{39}{subsubsection.5.5.2.6}
\contentsline {subsubsection}{\numberline {5.5.2.7}addsingledefectreactionsfine}{40}{subsubsection.5.5.2.7}
\contentsline {subsubsection}{\numberline {5.5.2.8}checkreactionlegality}{41}{subsubsection.5.5.2.8}
\contentsline {subsubsection}{\numberline {5.5.2.9}defectcombinationrules}{41}{subsubsection.5.5.2.9}
\contentsline {subsubsection}{\numberline {5.5.2.10}finddparatelocal}{42}{subsubsection.5.5.2.10}
\contentsline {subsubsection}{\numberline {5.5.2.11}findheimplantratelocal}{42}{subsubsection.5.5.2.11}
\contentsline {subsubsection}{\numberline {5.5.2.12}findreactioninlist}{43}{subsubsection.5.5.2.12}
\contentsline {subsubsection}{\numberline {5.5.2.13}findreactioninlistdiff}{43}{subsubsection.5.5.2.13}
\contentsline {subsubsection}{\numberline {5.5.2.14}findreactioninlistmultiple}{43}{subsubsection.5.5.2.14}
\contentsline {subsubsection}{\numberline {5.5.2.15}findreactionrate}{44}{subsubsection.5.5.2.15}
\contentsline {subsubsection}{\numberline {5.5.2.16}findreactionratecoarsetofine}{44}{subsubsection.5.5.2.16}
\contentsline {subsubsection}{\numberline {5.5.2.17}findreactionratediff}{45}{subsubsection.5.5.2.17}
\contentsline {subsubsection}{\numberline {5.5.2.18}findreactionratedifffine}{45}{subsubsection.5.5.2.18}
\contentsline {subsubsection}{\numberline {5.5.2.19}findreactionratedissoc}{46}{subsubsection.5.5.2.19}
\contentsline {subsubsection}{\numberline {5.5.2.20}findreactionratedissocfine}{46}{subsubsection.5.5.2.20}
\contentsline {subsubsection}{\numberline {5.5.2.21}findreactionratefine}{47}{subsubsection.5.5.2.21}
\contentsline {subsubsection}{\numberline {5.5.2.22}findreactionrateimpurity}{47}{subsubsection.5.5.2.22}
\contentsline {subsubsection}{\numberline {5.5.2.23}findreactionrateimpurityfine}{48}{subsubsection.5.5.2.23}
\contentsline {subsubsection}{\numberline {5.5.2.24}findreactionratemultiple}{48}{subsubsection.5.5.2.24}
\contentsline {subsubsection}{\numberline {5.5.2.25}findreactionratemultiplefine}{49}{subsubsection.5.5.2.25}
\contentsline {subsubsection}{\numberline {5.5.2.26}findreactionratesink}{49}{subsubsection.5.5.2.26}
\contentsline {subsubsection}{\numberline {5.5.2.27}findreactionratesinkfine}{50}{subsubsection.5.5.2.27}
\contentsline {chapter}{\numberline {6}Data Type Documentation}{51}{chapter.6}
\contentsline {section}{\numberline {6.1}derivedtype\discretionary {\unhbox \voidb@x \hbox {\relax \fontsize {7}{8}\selectfont $\leftarrow \joinrel \rhook $}}{}{}:\discretionary {\unhbox \voidb@x \hbox {\relax \fontsize {7}{8}\selectfont $\leftarrow \joinrel \rhook $}}{}{}:bindingfunction Type Reference}{51}{section.6.1}
\contentsline {subsection}{\numberline {6.1.1}Detailed Description}{51}{subsection.6.1.1}
\contentsline {subsection}{\numberline {6.1.2}Member Data Documentation}{51}{subsection.6.1.2}
\contentsline {subsubsection}{\numberline {6.1.2.1}defecttype}{51}{subsubsection.6.1.2.1}
\contentsline {subsubsection}{\numberline {6.1.2.2}functiontype}{51}{subsubsection.6.1.2.2}
\contentsline {subsubsection}{\numberline {6.1.2.3}max}{52}{subsubsection.6.1.2.3}
\contentsline {subsubsection}{\numberline {6.1.2.4}min}{52}{subsubsection.6.1.2.4}
\contentsline {subsubsection}{\numberline {6.1.2.5}numparam}{52}{subsubsection.6.1.2.5}
\contentsline {subsubsection}{\numberline {6.1.2.6}parameters}{52}{subsubsection.6.1.2.6}
\contentsline {subsubsection}{\numberline {6.1.2.7}product}{52}{subsubsection.6.1.2.7}
\contentsline {section}{\numberline {6.2}derivedtype\discretionary {\unhbox \voidb@x \hbox {\relax \fontsize {7}{8}\selectfont $\leftarrow \joinrel \rhook $}}{}{}:\discretionary {\unhbox \voidb@x \hbox {\relax \fontsize {7}{8}\selectfont $\leftarrow \joinrel \rhook $}}{}{}:bindingsingle Type Reference}{52}{section.6.2}
\contentsline {subsection}{\numberline {6.2.1}Detailed Description}{52}{subsection.6.2.1}
\contentsline {subsection}{\numberline {6.2.2}Member Data Documentation}{52}{subsection.6.2.2}
\contentsline {subsubsection}{\numberline {6.2.2.1}defecttype}{52}{subsubsection.6.2.2.1}
\contentsline {subsubsection}{\numberline {6.2.2.2}eb}{53}{subsubsection.6.2.2.2}
\contentsline {subsubsection}{\numberline {6.2.2.3}product}{53}{subsubsection.6.2.2.3}
\contentsline {section}{\numberline {6.3}derivedtype\discretionary {\unhbox \voidb@x \hbox {\relax \fontsize {7}{8}\selectfont $\leftarrow \joinrel \rhook $}}{}{}:\discretionary {\unhbox \voidb@x \hbox {\relax \fontsize {7}{8}\selectfont $\leftarrow \joinrel \rhook $}}{}{}:boundarymesh Type Reference}{53}{section.6.3}
\contentsline {subsection}{\numberline {6.3.1}Detailed Description}{53}{subsection.6.3.1}
\contentsline {subsection}{\numberline {6.3.2}Member Data Documentation}{54}{subsection.6.3.2}
\contentsline {subsubsection}{\numberline {6.3.2.1}defectlist}{54}{subsubsection.6.3.2.1}
\contentsline {subsubsection}{\numberline {6.3.2.2}length}{54}{subsubsection.6.3.2.2}
\contentsline {subsubsection}{\numberline {6.3.2.3}localneighbor}{54}{subsubsection.6.3.2.3}
\contentsline {subsubsection}{\numberline {6.3.2.4}material}{54}{subsubsection.6.3.2.4}
\contentsline {subsubsection}{\numberline {6.3.2.5}proc}{54}{subsubsection.6.3.2.5}
\contentsline {subsubsection}{\numberline {6.3.2.6}volume}{54}{subsubsection.6.3.2.6}
\contentsline {section}{\numberline {6.4}derivedtype\discretionary {\unhbox \voidb@x \hbox {\relax \fontsize {7}{8}\selectfont $\leftarrow \joinrel \rhook $}}{}{}:\discretionary {\unhbox \voidb@x \hbox {\relax \fontsize {7}{8}\selectfont $\leftarrow \joinrel \rhook $}}{}{}:cascade Type Reference}{54}{section.6.4}
\contentsline {subsection}{\numberline {6.4.1}Detailed Description}{55}{subsection.6.4.1}
\contentsline {subsection}{\numberline {6.4.2}Member Data Documentation}{55}{subsection.6.4.2}
\contentsline {subsubsection}{\numberline {6.4.2.1}cascadeid}{55}{subsubsection.6.4.2.1}
\contentsline {subsubsection}{\numberline {6.4.2.2}cellnumber}{55}{subsubsection.6.4.2.2}
\contentsline {subsubsection}{\numberline {6.4.2.3}localdefects}{56}{subsubsection.6.4.2.3}
\contentsline {subsubsection}{\numberline {6.4.2.4}next}{56}{subsubsection.6.4.2.4}
\contentsline {subsubsection}{\numberline {6.4.2.5}prev}{56}{subsubsection.6.4.2.5}
\contentsline {subsubsection}{\numberline {6.4.2.6}reactionlist}{56}{subsubsection.6.4.2.6}
\contentsline {subsubsection}{\numberline {6.4.2.7}totalrate}{56}{subsubsection.6.4.2.7}
\contentsline {section}{\numberline {6.5}derivedtype\discretionary {\unhbox \voidb@x \hbox {\relax \fontsize {7}{8}\selectfont $\leftarrow \joinrel \rhook $}}{}{}:\discretionary {\unhbox \voidb@x \hbox {\relax \fontsize {7}{8}\selectfont $\leftarrow \joinrel \rhook $}}{}{}:cascadedefect Type Reference}{56}{section.6.5}
\contentsline {subsection}{\numberline {6.5.1}Detailed Description}{57}{subsection.6.5.1}
\contentsline {subsection}{\numberline {6.5.2}Member Data Documentation}{57}{subsection.6.5.2}
\contentsline {subsubsection}{\numberline {6.5.2.1}coordinates}{57}{subsubsection.6.5.2.1}
\contentsline {subsubsection}{\numberline {6.5.2.2}defecttype}{57}{subsubsection.6.5.2.2}
\contentsline {subsubsection}{\numberline {6.5.2.3}next}{57}{subsubsection.6.5.2.3}
\contentsline {section}{\numberline {6.6}derivedtype\discretionary {\unhbox \voidb@x \hbox {\relax \fontsize {7}{8}\selectfont $\leftarrow \joinrel \rhook $}}{}{}:\discretionary {\unhbox \voidb@x \hbox {\relax \fontsize {7}{8}\selectfont $\leftarrow \joinrel \rhook $}}{}{}:cascadeevent Type Reference}{57}{section.6.6}
\contentsline {subsection}{\numberline {6.6.1}Detailed Description}{58}{subsection.6.6.1}
\contentsline {subsection}{\numberline {6.6.2}Member Data Documentation}{58}{subsection.6.6.2}
\contentsline {subsubsection}{\numberline {6.6.2.1}listofdefects}{58}{subsubsection.6.6.2.1}
\contentsline {subsubsection}{\numberline {6.6.2.2}nextcascade}{58}{subsubsection.6.6.2.2}
\contentsline {subsubsection}{\numberline {6.6.2.3}numdefectstotal}{58}{subsubsection.6.6.2.3}
\contentsline {subsubsection}{\numberline {6.6.2.4}numdisplacedatoms}{58}{subsubsection.6.6.2.4}
\contentsline {section}{\numberline {6.7}derivedtype\discretionary {\unhbox \voidb@x \hbox {\relax \fontsize {7}{8}\selectfont $\leftarrow \joinrel \rhook $}}{}{}:\discretionary {\unhbox \voidb@x \hbox {\relax \fontsize {7}{8}\selectfont $\leftarrow \joinrel \rhook $}}{}{}:defect Type Reference}{58}{section.6.7}
\contentsline {subsection}{\numberline {6.7.1}Detailed Description}{59}{subsection.6.7.1}
\contentsline {subsection}{\numberline {6.7.2}Member Data Documentation}{59}{subsection.6.7.2}
\contentsline {subsubsection}{\numberline {6.7.2.1}cellnumber}{59}{subsubsection.6.7.2.1}
\contentsline {subsubsection}{\numberline {6.7.2.2}defecttype}{59}{subsubsection.6.7.2.2}
\contentsline {subsubsection}{\numberline {6.7.2.3}next}{59}{subsubsection.6.7.2.3}
\contentsline {subsubsection}{\numberline {6.7.2.4}num}{59}{subsubsection.6.7.2.4}
\contentsline {section}{\numberline {6.8}derivedtype\discretionary {\unhbox \voidb@x \hbox {\relax \fontsize {7}{8}\selectfont $\leftarrow \joinrel \rhook $}}{}{}:\discretionary {\unhbox \voidb@x \hbox {\relax \fontsize {7}{8}\selectfont $\leftarrow \joinrel \rhook $}}{}{}:defectupdatetracker Type Reference}{59}{section.6.8}
\contentsline {subsection}{\numberline {6.8.1}Detailed Description}{60}{subsection.6.8.1}
\contentsline {subsection}{\numberline {6.8.2}Member Data Documentation}{60}{subsection.6.8.2}
\contentsline {subsubsection}{\numberline {6.8.2.1}cascadenumber}{60}{subsubsection.6.8.2.1}
\contentsline {subsubsection}{\numberline {6.8.2.2}cellnumber}{60}{subsubsection.6.8.2.2}
\contentsline {subsubsection}{\numberline {6.8.2.3}defecttype}{60}{subsubsection.6.8.2.3}
\contentsline {subsubsection}{\numberline {6.8.2.4}dir}{60}{subsubsection.6.8.2.4}
\contentsline {subsubsection}{\numberline {6.8.2.5}neighbor}{60}{subsubsection.6.8.2.5}
\contentsline {subsubsection}{\numberline {6.8.2.6}next}{61}{subsubsection.6.8.2.6}
\contentsline {subsubsection}{\numberline {6.8.2.7}num}{61}{subsubsection.6.8.2.7}
\contentsline {subsubsection}{\numberline {6.8.2.8}proc}{61}{subsubsection.6.8.2.8}
\contentsline {section}{\numberline {6.9}derivedtype\discretionary {\unhbox \voidb@x \hbox {\relax \fontsize {7}{8}\selectfont $\leftarrow \joinrel \rhook $}}{}{}:\discretionary {\unhbox \voidb@x \hbox {\relax \fontsize {7}{8}\selectfont $\leftarrow \joinrel \rhook $}}{}{}:diffusionfunction Type Reference}{61}{section.6.9}
\contentsline {subsection}{\numberline {6.9.1}Detailed Description}{61}{subsection.6.9.1}
\contentsline {subsection}{\numberline {6.9.2}Member Data Documentation}{61}{subsection.6.9.2}
\contentsline {subsubsection}{\numberline {6.9.2.1}defecttype}{61}{subsubsection.6.9.2.1}
\contentsline {subsubsection}{\numberline {6.9.2.2}functiontype}{62}{subsubsection.6.9.2.2}
\contentsline {subsubsection}{\numberline {6.9.2.3}max}{62}{subsubsection.6.9.2.3}
\contentsline {subsubsection}{\numberline {6.9.2.4}min}{62}{subsubsection.6.9.2.4}
\contentsline {subsubsection}{\numberline {6.9.2.5}numparam}{62}{subsubsection.6.9.2.5}
\contentsline {subsubsection}{\numberline {6.9.2.6}parameters}{62}{subsubsection.6.9.2.6}
\contentsline {section}{\numberline {6.10}derivedtype\discretionary {\unhbox \voidb@x \hbox {\relax \fontsize {7}{8}\selectfont $\leftarrow \joinrel \rhook $}}{}{}:\discretionary {\unhbox \voidb@x \hbox {\relax \fontsize {7}{8}\selectfont $\leftarrow \joinrel \rhook $}}{}{}:diffusionsingle Type Reference}{62}{section.6.10}
\contentsline {subsection}{\numberline {6.10.1}Detailed Description}{62}{subsection.6.10.1}
\contentsline {subsection}{\numberline {6.10.2}Member Data Documentation}{62}{subsection.6.10.2}
\contentsline {subsubsection}{\numberline {6.10.2.1}d}{62}{subsubsection.6.10.2.1}
\contentsline {subsubsection}{\numberline {6.10.2.2}defecttype}{63}{subsubsection.6.10.2.2}
\contentsline {subsubsection}{\numberline {6.10.2.3}em}{63}{subsubsection.6.10.2.3}
\contentsline {section}{\numberline {6.11}derivedtype\discretionary {\unhbox \voidb@x \hbox {\relax \fontsize {7}{8}\selectfont $\leftarrow \joinrel \rhook $}}{}{}:\discretionary {\unhbox \voidb@x \hbox {\relax \fontsize {7}{8}\selectfont $\leftarrow \joinrel \rhook $}}{}{}:mesh Type Reference}{63}{section.6.11}
\contentsline {subsection}{\numberline {6.11.1}Detailed Description}{63}{subsection.6.11.1}
\contentsline {subsection}{\numberline {6.11.2}Member Data Documentation}{63}{subsection.6.11.2}
\contentsline {subsubsection}{\numberline {6.11.2.1}coordinates}{63}{subsubsection.6.11.2.1}
\contentsline {subsubsection}{\numberline {6.11.2.2}length}{64}{subsubsection.6.11.2.2}
\contentsline {subsubsection}{\numberline {6.11.2.3}material}{64}{subsubsection.6.11.2.3}
\contentsline {subsubsection}{\numberline {6.11.2.4}neighborprocs}{64}{subsubsection.6.11.2.4}
\contentsline {subsubsection}{\numberline {6.11.2.5}neighbors}{64}{subsubsection.6.11.2.5}
\contentsline {subsubsection}{\numberline {6.11.2.6}numneighbors}{64}{subsubsection.6.11.2.6}
\contentsline {subsubsection}{\numberline {6.11.2.7}proc}{64}{subsubsection.6.11.2.7}
\contentsline {subsubsection}{\numberline {6.11.2.8}volume}{64}{subsubsection.6.11.2.8}
\contentsline {section}{\numberline {6.12}derivedtype\discretionary {\unhbox \voidb@x \hbox {\relax \fontsize {7}{8}\selectfont $\leftarrow \joinrel \rhook $}}{}{}:\discretionary {\unhbox \voidb@x \hbox {\relax \fontsize {7}{8}\selectfont $\leftarrow \joinrel \rhook $}}{}{}:processordata Type Reference}{64}{section.6.12}
\contentsline {subsection}{\numberline {6.12.1}Detailed Description}{65}{subsection.6.12.1}
\contentsline {subsection}{\numberline {6.12.2}Member Data Documentation}{65}{subsection.6.12.2}
\contentsline {subsubsection}{\numberline {6.12.2.1}globalcoord}{65}{subsubsection.6.12.2.1}
\contentsline {subsubsection}{\numberline {6.12.2.2}localcoord}{65}{subsubsection.6.12.2.2}
\contentsline {subsubsection}{\numberline {6.12.2.3}numtasks}{65}{subsubsection.6.12.2.3}
\contentsline {subsubsection}{\numberline {6.12.2.4}procneighbor}{65}{subsubsection.6.12.2.4}
\contentsline {subsubsection}{\numberline {6.12.2.5}taskid}{65}{subsubsection.6.12.2.5}
\contentsline {section}{\numberline {6.13}derivedtype\discretionary {\unhbox \voidb@x \hbox {\relax \fontsize {7}{8}\selectfont $\leftarrow \joinrel \rhook $}}{}{}:\discretionary {\unhbox \voidb@x \hbox {\relax \fontsize {7}{8}\selectfont $\leftarrow \joinrel \rhook $}}{}{}:reaction Type Reference}{65}{section.6.13}
\contentsline {subsection}{\numberline {6.13.1}Detailed Description}{66}{subsection.6.13.1}
\contentsline {subsection}{\numberline {6.13.2}Member Data Documentation}{66}{subsection.6.13.2}
\contentsline {subsubsection}{\numberline {6.13.2.1}cellnumber}{66}{subsubsection.6.13.2.1}
\contentsline {subsubsection}{\numberline {6.13.2.2}next}{66}{subsubsection.6.13.2.2}
\contentsline {subsubsection}{\numberline {6.13.2.3}numproducts}{66}{subsubsection.6.13.2.3}
\contentsline {subsubsection}{\numberline {6.13.2.4}numreactants}{66}{subsubsection.6.13.2.4}
\contentsline {subsubsection}{\numberline {6.13.2.5}products}{66}{subsubsection.6.13.2.5}
\contentsline {subsubsection}{\numberline {6.13.2.6}reactants}{66}{subsubsection.6.13.2.6}
\contentsline {subsubsection}{\numberline {6.13.2.7}reactionrate}{67}{subsubsection.6.13.2.7}
\contentsline {subsubsection}{\numberline {6.13.2.8}taskid}{67}{subsubsection.6.13.2.8}
\contentsline {section}{\numberline {6.14}derivedtype\discretionary {\unhbox \voidb@x \hbox {\relax \fontsize {7}{8}\selectfont $\leftarrow \joinrel \rhook $}}{}{}:\discretionary {\unhbox \voidb@x \hbox {\relax \fontsize {7}{8}\selectfont $\leftarrow \joinrel \rhook $}}{}{}:reactionparameters Type Reference}{67}{section.6.14}
\contentsline {subsection}{\numberline {6.14.1}Detailed Description}{67}{subsection.6.14.1}
\contentsline {subsection}{\numberline {6.14.2}Member Data Documentation}{67}{subsection.6.14.2}
\contentsline {subsubsection}{\numberline {6.14.2.1}functiontype}{67}{subsubsection.6.14.2.1}
\contentsline {subsubsection}{\numberline {6.14.2.2}max}{67}{subsubsection.6.14.2.2}
\contentsline {subsubsection}{\numberline {6.14.2.3}min}{68}{subsubsection.6.14.2.3}
\contentsline {subsubsection}{\numberline {6.14.2.4}numproducts}{68}{subsubsection.6.14.2.4}
\contentsline {subsubsection}{\numberline {6.14.2.5}numreactants}{68}{subsubsection.6.14.2.5}
\contentsline {subsubsection}{\numberline {6.14.2.6}products}{68}{subsubsection.6.14.2.6}
\contentsline {subsubsection}{\numberline {6.14.2.7}reactants}{68}{subsubsection.6.14.2.7}
\contentsline {chapter}{\numberline {7}File Documentation}{69}{chapter.7}
\contentsline {section}{\numberline {7.1}/\discretionary {\unhbox \voidb@x \hbox {\relax \fontsize {7}{8}\selectfont $\leftarrow \joinrel \rhook $}}{}{}Users/aydunn/\discretionary {\unhbox \voidb@x \hbox {\relax \fontsize {7}{8}\selectfont $\leftarrow \joinrel \rhook $}}{}{}Documents/srscd/src/\discretionary {\unhbox \voidb@x \hbox {\relax \fontsize {7}{8}\selectfont $\leftarrow \joinrel \rhook $}}{}{}Cascade\discretionary {\unhbox \voidb@x \hbox {\relax \fontsize {7}{8}\selectfont $\leftarrow \joinrel \rhook $}}{}{}\_\discretionary {\unhbox \voidb@x \hbox {\relax \fontsize {7}{8}\selectfont $\leftarrow \joinrel \rhook $}}{}{}implantation.f90 File Reference}{69}{section.7.1}
\contentsline {subsection}{\numberline {7.1.1}Function/\discretionary {\unhbox \voidb@x \hbox {\relax \fontsize {7}{8}\selectfont $\leftarrow \joinrel \rhook $}}{}{}Subroutine Documentation}{69}{subsection.7.1.1}
\contentsline {subsubsection}{\numberline {7.1.1.1}addcascadeexplicit}{69}{subsubsection.7.1.1.1}
\contentsline {subsubsection}{\numberline {7.1.1.2}cascadecount}{70}{subsubsection.7.1.1.2}
\contentsline {subsubsection}{\numberline {7.1.1.3}cascademixingcheck}{70}{subsubsection.7.1.1.3}
\contentsline {subsubsection}{\numberline {7.1.1.4}cascadeupdatestep}{70}{subsubsection.7.1.1.4}
\contentsline {subsubsection}{\numberline {7.1.1.5}choosecascade}{71}{subsubsection.7.1.1.5}
\contentsline {subsubsection}{\numberline {7.1.1.6}createcascadeconnectivity}{72}{subsubsection.7.1.1.6}
\contentsline {section}{\numberline {7.2}/\discretionary {\unhbox \voidb@x \hbox {\relax \fontsize {7}{8}\selectfont $\leftarrow \joinrel \rhook $}}{}{}Users/aydunn/\discretionary {\unhbox \voidb@x \hbox {\relax \fontsize {7}{8}\selectfont $\leftarrow \joinrel \rhook $}}{}{}Documents/srscd/src/\discretionary {\unhbox \voidb@x \hbox {\relax \fontsize {7}{8}\selectfont $\leftarrow \joinrel \rhook $}}{}{}Coarse\discretionary {\unhbox \voidb@x \hbox {\relax \fontsize {7}{8}\selectfont $\leftarrow \joinrel \rhook $}}{}{}Mesh\discretionary {\unhbox \voidb@x \hbox {\relax \fontsize {7}{8}\selectfont $\leftarrow \joinrel \rhook $}}{}{}\_\discretionary {\unhbox \voidb@x \hbox {\relax \fontsize {7}{8}\selectfont $\leftarrow \joinrel \rhook $}}{}{}subroutines.f90 File Reference}{72}{section.7.2}
\contentsline {subsection}{\numberline {7.2.1}Function/\discretionary {\unhbox \voidb@x \hbox {\relax \fontsize {7}{8}\selectfont $\leftarrow \joinrel \rhook $}}{}{}Subroutine Documentation}{72}{subsection.7.2.1}
\contentsline {subsubsection}{\numberline {7.2.1.1}clearreactionlistsinglecell}{72}{subsubsection.7.2.1.1}
\contentsline {subsubsection}{\numberline {7.2.1.2}countreactionscoarse}{73}{subsubsection.7.2.1.2}
\contentsline {subsubsection}{\numberline {7.2.1.3}finddefectinlist}{73}{subsubsection.7.2.1.3}
\contentsline {subsubsection}{\numberline {7.2.1.4}findnumdefect}{74}{subsubsection.7.2.1.4}
\contentsline {subsubsection}{\numberline {7.2.1.5}findnumdefectboundary}{74}{subsubsection.7.2.1.5}
\contentsline {subsubsection}{\numberline {7.2.1.6}resetreactionlistsinglecell}{74}{subsubsection.7.2.1.6}
\contentsline {subsubsection}{\numberline {7.2.1.7}updateimplantratesinglecell}{75}{subsubsection.7.2.1.7}
\contentsline {section}{\numberline {7.3}/\discretionary {\unhbox \voidb@x \hbox {\relax \fontsize {7}{8}\selectfont $\leftarrow \joinrel \rhook $}}{}{}Users/aydunn/\discretionary {\unhbox \voidb@x \hbox {\relax \fontsize {7}{8}\selectfont $\leftarrow \joinrel \rhook $}}{}{}Documents/srscd/src/\discretionary {\unhbox \voidb@x \hbox {\relax \fontsize {7}{8}\selectfont $\leftarrow \joinrel \rhook $}}{}{}Deallocate\discretionary {\unhbox \voidb@x \hbox {\relax \fontsize {7}{8}\selectfont $\leftarrow \joinrel \rhook $}}{}{}\_\discretionary {\unhbox \voidb@x \hbox {\relax \fontsize {7}{8}\selectfont $\leftarrow \joinrel \rhook $}}{}{}\discretionary {\unhbox \voidb@x \hbox {\relax \fontsize {7}{8}\selectfont $\leftarrow \joinrel \rhook $}}{}{}Lists.f90 File Reference}{76}{section.7.3}
\contentsline {subsection}{\numberline {7.3.1}Function/\discretionary {\unhbox \voidb@x \hbox {\relax \fontsize {7}{8}\selectfont $\leftarrow \joinrel \rhook $}}{}{}Subroutine Documentation}{76}{subsection.7.3.1}
\contentsline {subsubsection}{\numberline {7.3.1.1}deallocateboundarydefectlist}{76}{subsubsection.7.3.1.1}
\contentsline {subsubsection}{\numberline {7.3.1.2}deallocatecascadelist}{76}{subsubsection.7.3.1.2}
\contentsline {subsubsection}{\numberline {7.3.1.3}deallocatedefectlist}{77}{subsubsection.7.3.1.3}
\contentsline {subsubsection}{\numberline {7.3.1.4}deallocatematerialinput}{77}{subsubsection.7.3.1.4}
\contentsline {subsubsection}{\numberline {7.3.1.5}deallocatereactionlist}{78}{subsubsection.7.3.1.5}
\contentsline {section}{\numberline {7.4}/\discretionary {\unhbox \voidb@x \hbox {\relax \fontsize {7}{8}\selectfont $\leftarrow \joinrel \rhook $}}{}{}Users/aydunn/\discretionary {\unhbox \voidb@x \hbox {\relax \fontsize {7}{8}\selectfont $\leftarrow \joinrel \rhook $}}{}{}Documents/srscd/src/\discretionary {\unhbox \voidb@x \hbox {\relax \fontsize {7}{8}\selectfont $\leftarrow \joinrel \rhook $}}{}{}Debug\discretionary {\unhbox \voidb@x \hbox {\relax \fontsize {7}{8}\selectfont $\leftarrow \joinrel \rhook $}}{}{}\_\discretionary {\unhbox \voidb@x \hbox {\relax \fontsize {7}{8}\selectfont $\leftarrow \joinrel \rhook $}}{}{}subroutines.f90 File Reference}{78}{section.7.4}
\contentsline {subsection}{\numberline {7.4.1}Function/\discretionary {\unhbox \voidb@x \hbox {\relax \fontsize {7}{8}\selectfont $\leftarrow \joinrel \rhook $}}{}{}Subroutine Documentation}{78}{subsection.7.4.1}
\contentsline {subsubsection}{\numberline {7.4.1.1}debugcheckforunadmissible}{79}{subsubsection.7.4.1.1}
\contentsline {subsubsection}{\numberline {7.4.1.2}debugprintdefects}{79}{subsubsection.7.4.1.2}
\contentsline {subsubsection}{\numberline {7.4.1.3}debugprintdefectupdate}{79}{subsubsection.7.4.1.3}
\contentsline {subsubsection}{\numberline {7.4.1.4}debugprintreaction}{80}{subsubsection.7.4.1.4}
\contentsline {subsubsection}{\numberline {7.4.1.5}debugprintreactionlist}{80}{subsubsection.7.4.1.5}
\contentsline {section}{\numberline {7.5}/\discretionary {\unhbox \voidb@x \hbox {\relax \fontsize {7}{8}\selectfont $\leftarrow \joinrel \rhook $}}{}{}Users/aydunn/\discretionary {\unhbox \voidb@x \hbox {\relax \fontsize {7}{8}\selectfont $\leftarrow \joinrel \rhook $}}{}{}Documents/srscd/src/\discretionary {\unhbox \voidb@x \hbox {\relax \fontsize {7}{8}\selectfont $\leftarrow \joinrel \rhook $}}{}{}Defect\discretionary {\unhbox \voidb@x \hbox {\relax \fontsize {7}{8}\selectfont $\leftarrow \joinrel \rhook $}}{}{}\_\discretionary {\unhbox \voidb@x \hbox {\relax \fontsize {7}{8}\selectfont $\leftarrow \joinrel \rhook $}}{}{}attributes.f90 File Reference}{80}{section.7.5}
\contentsline {subsection}{\numberline {7.5.1}Function/\discretionary {\unhbox \voidb@x \hbox {\relax \fontsize {7}{8}\selectfont $\leftarrow \joinrel \rhook $}}{}{}Subroutine Documentation}{80}{subsection.7.5.1}
\contentsline {subsubsection}{\numberline {7.5.1.1}bindingcompute}{80}{subsubsection.7.5.1.1}
\contentsline {subsubsection}{\numberline {7.5.1.2}diffusivitycompute}{81}{subsubsection.7.5.1.2}
\contentsline {subsubsection}{\numberline {7.5.1.3}findbinding}{81}{subsubsection.7.5.1.3}
\contentsline {subsubsection}{\numberline {7.5.1.4}finddefectsize}{81}{subsubsection.7.5.1.4}
\contentsline {subsubsection}{\numberline {7.5.1.5}finddiffusivity}{81}{subsubsection.7.5.1.5}
\contentsline {section}{\numberline {7.6}/\discretionary {\unhbox \voidb@x \hbox {\relax \fontsize {7}{8}\selectfont $\leftarrow \joinrel \rhook $}}{}{}Users/aydunn/\discretionary {\unhbox \voidb@x \hbox {\relax \fontsize {7}{8}\selectfont $\leftarrow \joinrel \rhook $}}{}{}Documents/srscd/src/dprand.f90 File Reference}{81}{section.7.6}
\contentsline {section}{\numberline {7.7}/\discretionary {\unhbox \voidb@x \hbox {\relax \fontsize {7}{8}\selectfont $\leftarrow \joinrel \rhook $}}{}{}Users/aydunn/\discretionary {\unhbox \voidb@x \hbox {\relax \fontsize {7}{8}\selectfont $\leftarrow \joinrel \rhook $}}{}{}Documents/srscd/src/\discretionary {\unhbox \voidb@x \hbox {\relax \fontsize {7}{8}\selectfont $\leftarrow \joinrel \rhook $}}{}{}Fine\discretionary {\unhbox \voidb@x \hbox {\relax \fontsize {7}{8}\selectfont $\leftarrow \joinrel \rhook $}}{}{}Mesh\discretionary {\unhbox \voidb@x \hbox {\relax \fontsize {7}{8}\selectfont $\leftarrow \joinrel \rhook $}}{}{}\_\discretionary {\unhbox \voidb@x \hbox {\relax \fontsize {7}{8}\selectfont $\leftarrow \joinrel \rhook $}}{}{}subroutines.f90 File Reference}{82}{section.7.7}
\contentsline {subsection}{\numberline {7.7.1}Function/\discretionary {\unhbox \voidb@x \hbox {\relax \fontsize {7}{8}\selectfont $\leftarrow \joinrel \rhook $}}{}{}Subroutine Documentation}{82}{subsection.7.7.1}
\contentsline {subsubsection}{\numberline {7.7.1.1}chooserandomcell}{82}{subsubsection.7.7.1.1}
\contentsline {subsubsection}{\numberline {7.7.1.2}countreactionsfine}{82}{subsubsection.7.7.1.2}
\contentsline {subsubsection}{\numberline {7.7.1.3}findcellwithcoordinatesfinemesh}{83}{subsubsection.7.7.1.3}
\contentsline {subsubsection}{\numberline {7.7.1.4}findnumdefectfine}{83}{subsubsection.7.7.1.4}
\contentsline {subsubsection}{\numberline {7.7.1.5}findnumdefecttotalfine}{83}{subsubsection.7.7.1.5}
\contentsline {subsubsection}{\numberline {7.7.1.6}releasefinemeshdefects}{84}{subsubsection.7.7.1.6}
\contentsline {section}{\numberline {7.8}/\discretionary {\unhbox \voidb@x \hbox {\relax \fontsize {7}{8}\selectfont $\leftarrow \joinrel \rhook $}}{}{}Users/aydunn/\discretionary {\unhbox \voidb@x \hbox {\relax \fontsize {7}{8}\selectfont $\leftarrow \joinrel \rhook $}}{}{}Documents/srscd/src/\discretionary {\unhbox \voidb@x \hbox {\relax \fontsize {7}{8}\selectfont $\leftarrow \joinrel \rhook $}}{}{}Initialization\discretionary {\unhbox \voidb@x \hbox {\relax \fontsize {7}{8}\selectfont $\leftarrow \joinrel \rhook $}}{}{}\_\discretionary {\unhbox \voidb@x \hbox {\relax \fontsize {7}{8}\selectfont $\leftarrow \joinrel \rhook $}}{}{}subroutines.f90 File Reference}{85}{section.7.8}
\contentsline {subsection}{\numberline {7.8.1}Function/\discretionary {\unhbox \voidb@x \hbox {\relax \fontsize {7}{8}\selectfont $\leftarrow \joinrel \rhook $}}{}{}Subroutine Documentation}{85}{subsection.7.8.1}
\contentsline {subsubsection}{\numberline {7.8.1.1}annealinitialization}{85}{subsubsection.7.8.1.1}
\contentsline {subsubsection}{\numberline {7.8.1.2}initializeboundarydefectlist}{86}{subsubsection.7.8.1.2}
\contentsline {subsubsection}{\numberline {7.8.1.3}initializedebugrestart}{86}{subsubsection.7.8.1.3}
\contentsline {subsubsection}{\numberline {7.8.1.4}initializedefectlist}{87}{subsubsection.7.8.1.4}
\contentsline {subsubsection}{\numberline {7.8.1.5}initializefinemesh}{87}{subsubsection.7.8.1.5}
\contentsline {subsubsection}{\numberline {7.8.1.6}initializemesh}{88}{subsubsection.7.8.1.6}
\contentsline {subsubsection}{\numberline {7.8.1.7}initializerandomseeds}{89}{subsubsection.7.8.1.7}
\contentsline {subsubsection}{\numberline {7.8.1.8}initializereactionlist}{89}{subsubsection.7.8.1.8}
\contentsline {subsubsection}{\numberline {7.8.1.9}initializetotalrate}{90}{subsubsection.7.8.1.9}
\contentsline {section}{\numberline {7.9}/\discretionary {\unhbox \voidb@x \hbox {\relax \fontsize {7}{8}\selectfont $\leftarrow \joinrel \rhook $}}{}{}Users/aydunn/\discretionary {\unhbox \voidb@x \hbox {\relax \fontsize {7}{8}\selectfont $\leftarrow \joinrel \rhook $}}{}{}Documents/srscd/src/k\discretionary {\unhbox \voidb@x \hbox {\relax \fontsize {7}{8}\selectfont $\leftarrow \joinrel \rhook $}}{}{}M\discretionary {\unhbox \voidb@x \hbox {\relax \fontsize {7}{8}\selectfont $\leftarrow \joinrel \rhook $}}{}{}C\discretionary {\unhbox \voidb@x \hbox {\relax \fontsize {7}{8}\selectfont $\leftarrow \joinrel \rhook $}}{}{}\_\discretionary {\unhbox \voidb@x \hbox {\relax \fontsize {7}{8}\selectfont $\leftarrow \joinrel \rhook $}}{}{}subroutines.f90 File Reference}{90}{section.7.9}
\contentsline {subsection}{\numberline {7.9.1}Function/\discretionary {\unhbox \voidb@x \hbox {\relax \fontsize {7}{8}\selectfont $\leftarrow \joinrel \rhook $}}{}{}Subroutine Documentation}{90}{subsection.7.9.1}
\contentsline {subsubsection}{\numberline {7.9.1.1}choosereaction}{90}{subsubsection.7.9.1.1}
\contentsline {subsubsection}{\numberline {7.9.1.2}generatetimestep}{91}{subsubsection.7.9.1.2}
\contentsline {subsubsection}{\numberline {7.9.1.3}updatedefectlist}{91}{subsubsection.7.9.1.3}
\contentsline {subsubsection}{\numberline {7.9.1.4}updatereactionlist}{92}{subsubsection.7.9.1.4}
\contentsline {section}{\numberline {7.10}/\discretionary {\unhbox \voidb@x \hbox {\relax \fontsize {7}{8}\selectfont $\leftarrow \joinrel \rhook $}}{}{}Users/aydunn/\discretionary {\unhbox \voidb@x \hbox {\relax \fontsize {7}{8}\selectfont $\leftarrow \joinrel \rhook $}}{}{}Documents/srscd/src/\discretionary {\unhbox \voidb@x \hbox {\relax \fontsize {7}{8}\selectfont $\leftarrow \joinrel \rhook $}}{}{}Mesh\discretionary {\unhbox \voidb@x \hbox {\relax \fontsize {7}{8}\selectfont $\leftarrow \joinrel \rhook $}}{}{}Reader.f90 File Reference}{93}{section.7.10}
\contentsline {section}{\numberline {7.11}/\discretionary {\unhbox \voidb@x \hbox {\relax \fontsize {7}{8}\selectfont $\leftarrow \joinrel \rhook $}}{}{}Users/aydunn/\discretionary {\unhbox \voidb@x \hbox {\relax \fontsize {7}{8}\selectfont $\leftarrow \joinrel \rhook $}}{}{}Documents/srscd/src/\discretionary {\unhbox \voidb@x \hbox {\relax \fontsize {7}{8}\selectfont $\leftarrow \joinrel \rhook $}}{}{}Misc\discretionary {\unhbox \voidb@x \hbox {\relax \fontsize {7}{8}\selectfont $\leftarrow \joinrel \rhook $}}{}{}\_\discretionary {\unhbox \voidb@x \hbox {\relax \fontsize {7}{8}\selectfont $\leftarrow \joinrel \rhook $}}{}{}functions.f90 File Reference}{94}{section.7.11}
\contentsline {subsection}{\numberline {7.11.1}Function/\discretionary {\unhbox \voidb@x \hbox {\relax \fontsize {7}{8}\selectfont $\leftarrow \joinrel \rhook $}}{}{}Subroutine Documentation}{94}{subsection.7.11.1}
\contentsline {subsubsection}{\numberline {7.11.1.1}binomial}{94}{subsubsection.7.11.1.1}
\contentsline {subsubsection}{\numberline {7.11.1.2}factorial}{95}{subsubsection.7.11.1.2}
\contentsline {subsubsection}{\numberline {7.11.1.3}totalratecheck}{95}{subsubsection.7.11.1.3}
\contentsline {section}{\numberline {7.12}/\discretionary {\unhbox \voidb@x \hbox {\relax \fontsize {7}{8}\selectfont $\leftarrow \joinrel \rhook $}}{}{}Users/aydunn/\discretionary {\unhbox \voidb@x \hbox {\relax \fontsize {7}{8}\selectfont $\leftarrow \joinrel \rhook $}}{}{}Documents/srscd/src/mod\discretionary {\unhbox \voidb@x \hbox {\relax \fontsize {7}{8}\selectfont $\leftarrow \joinrel \rhook $}}{}{}\_\discretionary {\unhbox \voidb@x \hbox {\relax \fontsize {7}{8}\selectfont $\leftarrow \joinrel \rhook $}}{}{}derivedtypes.f90 File Reference}{95}{section.7.12}
\contentsline {section}{\numberline {7.13}/\discretionary {\unhbox \voidb@x \hbox {\relax \fontsize {7}{8}\selectfont $\leftarrow \joinrel \rhook $}}{}{}Users/aydunn/\discretionary {\unhbox \voidb@x \hbox {\relax \fontsize {7}{8}\selectfont $\leftarrow \joinrel \rhook $}}{}{}Documents/srscd/src/mod\discretionary {\unhbox \voidb@x \hbox {\relax \fontsize {7}{8}\selectfont $\leftarrow \joinrel \rhook $}}{}{}\_\discretionary {\unhbox \voidb@x \hbox {\relax \fontsize {7}{8}\selectfont $\leftarrow \joinrel \rhook $}}{}{}srscd\discretionary {\unhbox \voidb@x \hbox {\relax \fontsize {7}{8}\selectfont $\leftarrow \joinrel \rhook $}}{}{}\_\discretionary {\unhbox \voidb@x \hbox {\relax \fontsize {7}{8}\selectfont $\leftarrow \joinrel \rhook $}}{}{}constants.f90 File Reference}{96}{section.7.13}
\contentsline {section}{\numberline {7.14}/\discretionary {\unhbox \voidb@x \hbox {\relax \fontsize {7}{8}\selectfont $\leftarrow \joinrel \rhook $}}{}{}Users/aydunn/\discretionary {\unhbox \voidb@x \hbox {\relax \fontsize {7}{8}\selectfont $\leftarrow \joinrel \rhook $}}{}{}Documents/srscd/src/\discretionary {\unhbox \voidb@x \hbox {\relax \fontsize {7}{8}\selectfont $\leftarrow \joinrel \rhook $}}{}{}Postprocessing\discretionary {\unhbox \voidb@x \hbox {\relax \fontsize {7}{8}\selectfont $\leftarrow \joinrel \rhook $}}{}{}\_\discretionary {\unhbox \voidb@x \hbox {\relax \fontsize {7}{8}\selectfont $\leftarrow \joinrel \rhook $}}{}{}srscd.f90 File Reference}{100}{section.7.14}
\contentsline {subsection}{\numberline {7.14.1}Function/\discretionary {\unhbox \voidb@x \hbox {\relax \fontsize {7}{8}\selectfont $\leftarrow \joinrel \rhook $}}{}{}Subroutine Documentation}{100}{subsection.7.14.1}
\contentsline {subsubsection}{\numberline {7.14.1.1}outputdefects}{100}{subsubsection.7.14.1.1}
\contentsline {subsubsection}{\numberline {7.14.1.2}outputdefectsprofile}{100}{subsubsection.7.14.1.2}
\contentsline {subsubsection}{\numberline {7.14.1.3}outputdefectstotal}{100}{subsubsection.7.14.1.3}
\contentsline {subsubsection}{\numberline {7.14.1.4}outputdefectsvtk}{101}{subsubsection.7.14.1.4}
\contentsline {subsubsection}{\numberline {7.14.1.5}outputdefectsxyz}{101}{subsubsection.7.14.1.5}
\contentsline {subsubsection}{\numberline {7.14.1.6}outputrates}{101}{subsubsection.7.14.1.6}
\contentsline {section}{\numberline {7.15}/\discretionary {\unhbox \voidb@x \hbox {\relax \fontsize {7}{8}\selectfont $\leftarrow \joinrel \rhook $}}{}{}Users/aydunn/\discretionary {\unhbox \voidb@x \hbox {\relax \fontsize {7}{8}\selectfont $\leftarrow \joinrel \rhook $}}{}{}Documents/srscd/src/\discretionary {\unhbox \voidb@x \hbox {\relax \fontsize {7}{8}\selectfont $\leftarrow \joinrel \rhook $}}{}{}Reaction\discretionary {\unhbox \voidb@x \hbox {\relax \fontsize {7}{8}\selectfont $\leftarrow \joinrel \rhook $}}{}{}Rates.f90 File Reference}{102}{section.7.15}
\contentsline {section}{\numberline {7.16}/\discretionary {\unhbox \voidb@x \hbox {\relax \fontsize {7}{8}\selectfont $\leftarrow \joinrel \rhook $}}{}{}Users/aydunn/\discretionary {\unhbox \voidb@x \hbox {\relax \fontsize {7}{8}\selectfont $\leftarrow \joinrel \rhook $}}{}{}Documents/srscd/src/\discretionary {\unhbox \voidb@x \hbox {\relax \fontsize {7}{8}\selectfont $\leftarrow \joinrel \rhook $}}{}{}Read\discretionary {\unhbox \voidb@x \hbox {\relax \fontsize {7}{8}\selectfont $\leftarrow \joinrel \rhook $}}{}{}\_\discretionary {\unhbox \voidb@x \hbox {\relax \fontsize {7}{8}\selectfont $\leftarrow \joinrel \rhook $}}{}{}inputs.f90 File Reference}{103}{section.7.16}
\contentsline {subsection}{\numberline {7.16.1}Function/\discretionary {\unhbox \voidb@x \hbox {\relax \fontsize {7}{8}\selectfont $\leftarrow \joinrel \rhook $}}{}{}Subroutine Documentation}{104}{subsection.7.16.1}
\contentsline {subsubsection}{\numberline {7.16.1.1}readcascadelist}{104}{subsubsection.7.16.1.1}
\contentsline {subsubsection}{\numberline {7.16.1.2}readimplantdata}{104}{subsubsection.7.16.1.2}
\contentsline {subsubsection}{\numberline {7.16.1.3}readmaterialinput}{104}{subsubsection.7.16.1.3}
\contentsline {subsubsection}{\numberline {7.16.1.4}readparameters}{105}{subsubsection.7.16.1.4}
\contentsline {subsubsection}{\numberline {7.16.1.5}selectmaterialinputs}{105}{subsubsection.7.16.1.5}
\contentsline {section}{\numberline {7.17}/\discretionary {\unhbox \voidb@x \hbox {\relax \fontsize {7}{8}\selectfont $\leftarrow \joinrel \rhook $}}{}{}Users/aydunn/\discretionary {\unhbox \voidb@x \hbox {\relax \fontsize {7}{8}\selectfont $\leftarrow \joinrel \rhook $}}{}{}Documents/srscd/src/\discretionary {\unhbox \voidb@x \hbox {\relax \fontsize {7}{8}\selectfont $\leftarrow \joinrel \rhook $}}{}{}R\discretionary {\unhbox \voidb@x \hbox {\relax \fontsize {7}{8}\selectfont $\leftarrow \joinrel \rhook $}}{}{}E\discretionary {\unhbox \voidb@x \hbox {\relax \fontsize {7}{8}\selectfont $\leftarrow \joinrel \rhook $}}{}{}A\discretionary {\unhbox \voidb@x \hbox {\relax \fontsize {7}{8}\selectfont $\leftarrow \joinrel \rhook $}}{}{}D\discretionary {\unhbox \voidb@x \hbox {\relax \fontsize {7}{8}\selectfont $\leftarrow \joinrel \rhook $}}{}{}M\discretionary {\unhbox \voidb@x \hbox {\relax \fontsize {7}{8}\selectfont $\leftarrow \joinrel \rhook $}}{}{}E.txt File Reference}{106}{section.7.17}
\contentsline {section}{\numberline {7.18}/\discretionary {\unhbox \voidb@x \hbox {\relax \fontsize {7}{8}\selectfont $\leftarrow \joinrel \rhook $}}{}{}Users/aydunn/\discretionary {\unhbox \voidb@x \hbox {\relax \fontsize {7}{8}\selectfont $\leftarrow \joinrel \rhook $}}{}{}Documents/srscd/src/\discretionary {\unhbox \voidb@x \hbox {\relax \fontsize {7}{8}\selectfont $\leftarrow \joinrel \rhook $}}{}{}S\discretionary {\unhbox \voidb@x \hbox {\relax \fontsize {7}{8}\selectfont $\leftarrow \joinrel \rhook $}}{}{}R\discretionary {\unhbox \voidb@x \hbox {\relax \fontsize {7}{8}\selectfont $\leftarrow \joinrel \rhook $}}{}{}S\discretionary {\unhbox \voidb@x \hbox {\relax \fontsize {7}{8}\selectfont $\leftarrow \joinrel \rhook $}}{}{}C\discretionary {\unhbox \voidb@x \hbox {\relax \fontsize {7}{8}\selectfont $\leftarrow \joinrel \rhook $}}{}{}D\discretionary {\unhbox \voidb@x \hbox {\relax \fontsize {7}{8}\selectfont $\leftarrow \joinrel \rhook $}}{}{}\_\discretionary {\unhbox \voidb@x \hbox {\relax \fontsize {7}{8}\selectfont $\leftarrow \joinrel \rhook $}}{}{}par.f90 File Reference}{106}{section.7.18}
\contentsline {subsection}{\numberline {7.18.1}Function/\discretionary {\unhbox \voidb@x \hbox {\relax \fontsize {7}{8}\selectfont $\leftarrow \joinrel \rhook $}}{}{}Subroutine Documentation}{106}{subsection.7.18.1}
\contentsline {subsubsection}{\numberline {7.18.1.1}srscd}{106}{subsubsection.7.18.1.1}
\contentsline {chapter}{Index}{109}{section*.45}
